<sym_table>
#ime	sek	vr	vel	vid
iv_table	1	0	8	l
first	UND	0	0	g
second	UND	0	0	g
third	UND	0	0	g
fourth	UND	0	0	g
#rel.iv_table
0	R_16	2	 
2	R_16	3	 
4	R_16	4	 
6	R_16	5	 
<iv_table>:
0000
0000
0000
0000

