<sym_table>
#ime	sek	vr	vel	vid
text	1	0	39	l
loop	1	14	0	g
nizPocetak	UND	0	0	g
nizKraj	UND	0	0	g
#rel.text
2	R_16	3	 
7	R_16	4	 
36	R_16	2	 
<text>:
6400000022
6400000024
70000224
644226
644442
642644
68000222
70000224
8c2422
44000000
00

